{"data":[{"id":697760,"portal_id":"montilla","portal_name":"Datos Abiertos del Ayuntamiento de Montilla","source_id":"a33219a6-add4-440f-b9ce-00c3f71ad17f","url":"https://montilla-opendata.e-admin.es/dataset/poblacion170","title":"Población","publisher":"Montilla","formats":["XLSX","XML","CSV","JSON"],"num_resources":4,"license_id":"CC-BY-4.0","license_title":"Creative Commons Attribution 4.0","license_url":"https://creativecommons.org/licenses/by/4.0/","has_api":false,"has_geo":false,"theme":"Información básica de la entidad local","tags":["Información básica de la entidad local"],"update_frequency":null,"metadata_created":"2025-12-15 13:22:29","metadata_modified":"2026-05-04 03:01:36","harvested_at":"2026-05-04 10:43:19","meloda":{"total":18,"reusability":"basic","d1_license":3,"d2_access":1,"d3_format":2,"d4_standard":3,"d5_geo":1,"d6_frequency":1}},{"id":697756,"portal_id":"montilla","portal_name":"Datos Abiertos del Ayuntamiento de Montilla","source_id":"5ece8b23-2ca4-4cfe-9733-0d69c5a56d50","url":"https://montilla-opendata.e-admin.es/dataset/agenda-de-alcaldia-y-concejales19","title":"Agenda de Alcaldía y concejales","publisher":"Montilla","formats":["XLSX","XML","CSV","JSON"],"num_resources":4,"license_id":"cc-by-sa-4.0","license_title":"Creative Commons Attribution-ShareAlike 4.0 International (CC BY-SA 4.0)","license_url":"http://creativecommons.org/licenses/by-nc/2.0/cc-by-sa-4.0","has_api":false,"has_geo":false,"theme":"Información básica de la entidad local","tags":["Información básica de la entidad local"],"update_frequency":null,"metadata_created":"2025-12-15 13:22:23","metadata_modified":"2026-05-04 03:01:39","harvested_at":"2026-05-04 10:43:18","meloda":{"total":20,"reusability":"basic","d1_license":3,"d2_access":1,"d3_format":2,"d4_standard":3,"d5_geo":1,"d6_frequency":2}}],"meta":{"total":39,"page":1,"page_size":2,"pages":20},"links":{"self":"/api/v1/datasets?portal_id=montilla&page_size=2&page=1","next":"/api/v1/datasets?portal_id=montilla&page_size=2&page=2","prev":null}}